{

  "manifest_version": 2,
  "name": "Scripting Engine for Melvor Idle",
  "version": "0.3.5",
  "description": "QOL Scripting for Melvor Idle, the fun idle browser game!",
  "icons": {
    "48": "icons/border-48.png"
  },
  "content_scripts": [
    {
      "matches": ["*://*.melvoridle.com/*"],
      "js": ["scripts/SEMI.js"]
    }
  ],
  "web_accessible_resources": [
    "scripts/*.js",
    "icons/*.png",
    "scripts/plugins/*.js"
  ]
}
